r-titanic-data - Titanic
…
tf |> arrange(surname, first_names) |> glimpse()

Rows: 1,317
Columns: 7
$ surname         <chr> "Ab ī-Al-Munà", "Abbing", "Abbott", "Abbott", "Abbott"…
$ first_names     <chr> "Mr Nās īf Qāsim", "Mr Anthony", "Mr Eugene Joseph", "…
$ age             <chr> "26", "42", "14", "16", "39", "16", "25", "30", "28", …
$ boarded         <chr> "Cherbourg", "Southampton", "Southampton", "Southampto…
$ class           <chr> "3rd", "3rd", "3rd", "3rd", "3rd", "3rd", "3rd", "2nd"…
$ survivor_victim <chr> "S", "V", "V", "V", "S", "S", "S", "V", "S", "S", "V",…
$ lifeboat_number <chr> "15", NA, NA, NA, "A", "16", "A", NA, "10", "15", NA, …

tf |> arrange(surname)

# A tibble: 1,317 × 7
   surname      first_names  age   boarded class survivor_victim lifeboat_number
   <chr>        <chr>        <chr> <chr>   <chr> <chr>           <chr>          
 1 Ab ī-Al-Munà Mr Nās īf Q… 26    Cherbo… 3rd   S               15             
 2 Abbing       Mr Anthony   42    Southa… 3rd   V               <NA>           
 3 Abbott       Mrs Rhoda M… 39    Southa… 3rd   S               A              
 4 Abbott       Mr Rossmore… 16    Southa… 3rd   V               <NA>           
 5 Abbott       Mr Eugene J… 14    Southa… 3rd   V               <NA>           
 6 Abelseth     Mr Olaus Jø… 25    Southa… 3rd   S               A              
 7 Abelseth     Miss Karen … 16    Southa… 3rd   S               16             
 8 Abelson      Mr Samuel    30    Cherbo… 2nd   V               <NA>           
 9 Abelson      Mrs Hannah   28    Cherbo… 2nd   S               10             
10 Abrahamsson  Mr Abraham … 20    Southa… 3rd   S               15             
# ℹ 1,307 more rows
…
